transcript
# //  Questa Sim-64
# //  Version 2021.2_1 linux_x86_64 May 15 2021
# //
# //  Copyright 1991-2021 Mentor Graphics Corporation
# //  All Rights Reserved.
# //
# //  QuestaSim and its associated documentation contain trade
# //  secrets and commercial or financial information that are the property of
# //  Mentor Graphics Corporation and are privileged, confidential,
# //  and exempt from disclosure under the Freedom of Information Act,
# //  5 U.S.C. Section 552. Furthermore, this information
# //  is prohibited from disclosure under the Trade Secrets Act,
# //  18 U.S.C. Section 1905.
# //
# vsim -voptargs="+acc" top_testbench 
# Start time: 15:34:44 on Nov 30,2025
# ** Note: (vsim-3812) Design is being optimized...
# Loading sv_std.std
# Loading work.top_testbench_sv_unit(fast)
# Loading work.top_testbench(fast)
# Loading work.dual_port(fast__2)
# Loading work.dual_port_memory_top_module2(fast)
# Loading work.hamming_encoder(fast)
# Loading work.hamming_decoder(fast)
# Loading work.dual_port_multi_bank_memory(fast)
# Loading work.decoder(fast)
# Loading work.dual_port_memory_latency(fast)
# Loading work.dual_port(fast)
# ** Warning: (vsim-3015) [PCDPC] - Port size (8) does not match connection size (12) for port 'i_din_a'. The port definition is at: dual_port_memory_top_module2.sv(42).
#    Time: 0 ns  Iteration: 0  Instance: /top_testbench/dut File: top_testbench.sv Line: 20
# ** Warning: (vsim-3015) [PCDPC] - Port size (8) does not match connection size (12) for port 'i_din_b'. The port definition is at: dual_port_memory_top_module2.sv(42).
#    Time: 0 ns  Iteration: 0  Instance: /top_testbench/dut File: top_testbench.sv Line: 20
# ** Warning: (vsim-3015) [PCDPC] - Port size (5) does not match connection size (10) for port 'i_addr_a'. The port definition is at: dual_port_memory_top_module2.sv(43).
#    Time: 0 ns  Iteration: 0  Instance: /top_testbench/dut File: top_testbench.sv Line: 20
# ** Warning: (vsim-3015) [PCDPC] - Port size (5) does not match connection size (10) for port 'i_addr_b'. The port definition is at: dual_port_memory_top_module2.sv(43).
#    Time: 0 ns  Iteration: 0  Instance: /top_testbench/dut File: top_testbench.sv Line: 20
# ** Warning: (vsim-3015) [PCDPC] - Port size (8) does not match connection size (12) for port 'o_dout_a1'. The port definition is at: dual_port_memory_top_module2.sv(44).
#    Time: 0 ns  Iteration: 0  Instance: /top_testbench/dut File: top_testbench.sv Line: 20
# ** Warning: (vsim-3015) [PCDPC] - Port size (8) does not match connection size (12) for port 'o_dout_b1'. The port definition is at: dual_port_memory_top_module2.sv(44).
#    Time: 0 ns  Iteration: 0  Instance: /top_testbench/dut File: top_testbench.sv Line: 20
add wave -position insertpoint sim:/top_testbench/dut/*
restart
# ** Note: (vsim-12125) Error and warning message counts have been reset to '0' because of 'restart'.
# ** Note: (vsim-8009) Loading existing optimized design _opt2
# Loading work.top_testbench_sv_unit(fast)
# Loading work.top_testbench(fast)
# Loading work.dual_port(fast__2)
# Loading work.dual_port_memory_top_module2(fast)
# Loading work.hamming_encoder(fast)
# Loading work.hamming_decoder(fast)
# Loading work.dual_port_multi_bank_memory(fast)
# Loading work.decoder(fast)
# Loading work.dual_port_memory_latency(fast)
# Loading work.dual_port(fast)
# ** Warning: (vsim-3015) [PCDPC] - Port size (8) does not match connection size (12) for port 'i_din_a'. The port definition is at: dual_port_memory_top_module2.sv(42).
#    Time: 0 ns  Iteration: 0  Instance: /top_testbench/dut File: top_testbench.sv Line: 20
# ** Warning: (vsim-3015) [PCDPC] - Port size (8) does not match connection size (12) for port 'i_din_b'. The port definition is at: dual_port_memory_top_module2.sv(42).
#    Time: 0 ns  Iteration: 0  Instance: /top_testbench/dut File: top_testbench.sv Line: 20
# ** Warning: (vsim-3015) [PCDPC] - Port size (5) does not match connection size (10) for port 'i_addr_a'. The port definition is at: dual_port_memory_top_module2.sv(43).
#    Time: 0 ns  Iteration: 0  Instance: /top_testbench/dut File: top_testbench.sv Line: 20
# ** Warning: (vsim-3015) [PCDPC] - Port size (5) does not match connection size (10) for port 'i_addr_b'. The port definition is at: dual_port_memory_top_module2.sv(43).
#    Time: 0 ns  Iteration: 0  Instance: /top_testbench/dut File: top_testbench.sv Line: 20
# ** Warning: (vsim-3015) [PCDPC] - Port size (8) does not match connection size (12) for port 'o_dout_a1'. The port definition is at: dual_port_memory_top_module2.sv(44).
#    Time: 0 ns  Iteration: 0  Instance: /top_testbench/dut File: top_testbench.sv Line: 20
# ** Warning: (vsim-3015) [PCDPC] - Port size (8) does not match connection size (12) for port 'o_dout_b1'. The port definition is at: dual_port_memory_top_module2.sv(44).
#    Time: 0 ns  Iteration: 0  Instance: /top_testbench/dut File: top_testbench.sv Line: 20
run -all
# i_en_a = 1 	 i_en_b = 1 	 i_we_a = 1 	 i_we_b = 1 	 i_din_a = 67 	 i_din_b = 245 	 i_addr_a = 497 	 i_addr_b = 662
# i_en_a = 1 	 i_en_b = 1 	 i_we_a = 1 	 i_we_b = 1 	 i_din_a = 15 	 i_din_b = 252 	 i_addr_a = 419 	 i_addr_b = 558
# i_en_a = 1 	 i_en_b = 1 	 i_we_a = 0 	 i_we_b = 1 	 i_din_a = 60 	 i_din_b = 218 	 i_addr_a = 249 	 i_addr_b = 911
# i_en_a = 1 	 i_en_b = 1 	 i_we_a = 0 	 i_we_b = 1 	 i_din_a = 15 	 i_din_b = 187 	 i_addr_a = 311 	 i_addr_b = 752
# i_en_a = 1 	 i_en_b = 0 	 i_we_a = 0 	 i_we_b = 1 	 i_din_a = 33 	 i_din_b = 244 	 i_addr_a = 448 	 i_addr_b = 935
# i_en_a = 1 	 i_en_b = 1 	 i_we_a = 1 	 i_we_b = 0 	 i_din_a = 79 	 i_din_b = 196 	 i_addr_a = 138 	 i_addr_b = 890
# i_en_a = 1 	 i_en_b = 1 	 i_we_a = 0 	 i_we_b = 1 	 i_din_a = 43 	 i_din_b = 237 	 i_addr_a = 490 	 i_addr_b = 520
# i_en_a = 1 	 i_en_b = 1 	 i_we_a = 0 	 i_we_b = 0 	 i_din_a = 0 	 i_din_b = 164 	 i_addr_a = 272 	 i_addr_b = 630
# i_en_a = 1 	 i_en_b = 1 	 i_we_a = 1 	 i_we_b = 0 	 i_din_a = 52 	 i_din_b = 143 	 i_addr_a = 45 	 i_addr_b = 900
# i_en_a = 1 	 i_en_b = 0 	 i_we_a = 1 	 i_we_b = 1 	 i_din_a = 96 	 i_din_b = 243 	 i_addr_a = 454 	 i_addr_b = 872
# i_en_a = 1 	 i_en_b = 1 	 i_we_a = 0 	 i_we_b = 0 	 i_din_a = 83 	 i_din_b = 231 	 i_addr_a = 354 	 i_addr_b = 605
# i_en_a = 1 	 i_en_b = 1 	 i_we_a = 1 	 i_we_b = 1 	 i_din_a = 92 	 i_din_b = 230 	 i_addr_a = 461 	 i_addr_b = 622
# i_en_a = 0 	 i_en_b = 1 	 i_we_a = 0 	 i_we_b = 1 	 i_din_a = 48 	 i_din_b = 209 	 i_addr_a = 118 	 i_addr_b = 715
# i_en_a = 1 	 i_en_b = 0 	 i_we_a = 0 	 i_we_b = 0 	 i_din_a = 76 	 i_din_b = 170 	 i_addr_a = 155 	 i_addr_b = 664
# i_en_a = 1 	 i_en_b = 1 	 i_we_a = 1 	 i_we_b = 1 	 i_din_a = 69 	 i_din_b = 211 	 i_addr_a = 442 	 i_addr_b = 961
# i_en_a = 1 	 i_en_b = 1 	 i_we_a = 1 	 i_we_b = 0 	 i_din_a = 60 	 i_din_b = 134 	 i_addr_a = 139 	 i_addr_b = 860
# i_en_a = 1 	 i_en_b = 1 	 i_we_a = 0 	 i_we_b = 1 	 i_din_a = 108 	 i_din_b = 255 	 i_addr_a = 402 	 i_addr_b = 692
# i_en_a = 1 	 i_en_b = 1 	 i_we_a = 1 	 i_we_b = 0 	 i_din_a = 113 	 i_din_b = 157 	 i_addr_a = 374 	 i_addr_b = 785
# i_en_a = 1 	 i_en_b = 1 	 i_we_a = 1 	 i_we_b = 1 	 i_din_a = 29 	 i_din_b = 198 	 i_addr_a = 195 	 i_addr_b = 650
# i_en_a = 0 	 i_en_b = 1 	 i_we_a = 1 	 i_we_b = 1 	 i_din_a = 101 	 i_din_b = 197 	 i_addr_a = 9 	 i_addr_b = 857
# i_en_a = 1 	 i_en_b = 1 	 i_we_a = 1 	 i_we_b = 1 	 i_din_a = 89 	 i_din_b = 208 	 i_addr_a = 119 	 i_addr_b = 665
# i_en_a = 1 	 i_en_b = 1 	 i_we_a = 0 	 i_we_b = 1 	 i_din_a = 14 	 i_din_b = 254 	 i_addr_a = 279 	 i_addr_b = 974
# i_en_a = 1 	 i_en_b = 1 	 i_we_a = 0 	 i_we_b = 1 	 i_din_a = 46 	 i_din_b = 245 	 i_addr_a = 179 	 i_addr_b = 958
# i_en_a = 1 	 i_en_b = 1 	 i_we_a = 1 	 i_we_b = 0 	 i_din_a = 68 	 i_din_b = 250 	 i_addr_a = 143 	 i_addr_b = 903
# i_en_a = 1 	 i_en_b = 1 	 i_we_a = 0 	 i_we_b = 1 	 i_din_a = 7 	 i_din_b = 254 	 i_addr_a = 340 	 i_addr_b = 633
# i_en_a = 1 	 i_en_b = 1 	 i_we_a = 1 	 i_we_b = 0 	 i_din_a = 32 	 i_din_b = 182 	 i_addr_a = 63 	 i_addr_b = 715
# i_en_a = 1 	 i_en_b = 1 	 i_we_a = 0 	 i_we_b = 1 	 i_din_a = 87 	 i_din_b = 232 	 i_addr_a = 212 	 i_addr_b = 1004
# i_en_a = 1 	 i_en_b = 1 	 i_we_a = 0 	 i_we_b = 1 	 i_din_a = 54 	 i_din_b = 151 	 i_addr_a = 489 	 i_addr_b = 676
# i_en_a = 1 	 i_en_b = 1 	 i_we_a = 0 	 i_we_b = 1 	 i_din_a = 24 	 i_din_b = 183 	 i_addr_a = 426 	 i_addr_b = 801
# i_en_a = 1 	 i_en_b = 0 	 i_we_a = 1 	 i_we_b = 1 	 i_din_a = 46 	 i_din_b = 222 	 i_addr_a = 47 	 i_addr_b = 801
# i_en_a = 1 	 i_en_b = 1 	 i_we_a = 0 	 i_we_b = 0 	 i_din_a = 77 	 i_din_b = 187 	 i_addr_a = 262 	 i_addr_b = 538
# i_en_a = 1 	 i_en_b = 1 	 i_we_a = 1 	 i_we_b = 0 	 i_din_a = 39 	 i_din_b = 168 	 i_addr_a = 487 	 i_addr_b = 1018
# i_en_a = 1 	 i_en_b = 0 	 i_we_a = 0 	 i_we_b = 1 	 i_din_a = 27 	 i_din_b = 245 	 i_addr_a = 361 	 i_addr_b = 875
# i_en_a = 1 	 i_en_b = 1 	 i_we_a = 1 	 i_we_b = 0 	 i_din_a = 42 	 i_din_b = 239 	 i_addr_a = 167 	 i_addr_b = 579
# i_en_a = 1 	 i_en_b = 1 	 i_we_a = 1 	 i_we_b = 0 	 i_din_a = 1 	 i_din_b = 123 	 i_addr_a = 186 	 i_addr_b = 1017
# i_en_a = 1 	 i_en_b = 1 	 i_we_a = 1 	 i_we_b = 0 	 i_din_a = 52 	 i_din_b = 191 	 i_addr_a = 462 	 i_addr_b = 584
# i_en_a = 1 	 i_en_b = 1 	 i_we_a = 0 	 i_we_b = 0 	 i_din_a = 34 	 i_din_b = 165 	 i_addr_a = 459 	 i_addr_b = 691
# i_en_a = 1 	 i_en_b = 1 	 i_we_a = 1 	 i_we_b = 1 	 i_din_a = 91 	 i_din_b = 151 	 i_addr_a = 271 	 i_addr_b = 813
# i_en_a = 1 	 i_en_b = 1 	 i_we_a = 1 	 i_we_b = 0 	 i_din_a = 84 	 i_din_b = 185 	 i_addr_a = 298 	 i_addr_b = 559
# i_en_a = 1 	 i_en_b = 1 	 i_we_a = 0 	 i_we_b = 0 	 i_din_a = 39 	 i_din_b = 202 	 i_addr_a = 55 	 i_addr_b = 549
# i_en_a = 0 	 i_en_b = 1 	 i_we_a = 0 	 i_we_b = 0 	 i_din_a = 46 	 i_din_b = 160 	 i_addr_a = 357 	 i_addr_b = 844
# i_en_a = 1 	 i_en_b = 1 	 i_we_a = 0 	 i_we_b = 0 	 i_din_a = 53 	 i_din_b = 180 	 i_addr_a = 230 	 i_addr_b = 908
# i_en_a = 1 	 i_en_b = 1 	 i_we_a = 0 	 i_we_b = 1 	 i_din_a = 18 	 i_din_b = 172 	 i_addr_a = 244 	 i_addr_b = 924
# i_en_a = 1 	 i_en_b = 1 	 i_we_a = 0 	 i_we_b = 1 	 i_din_a = 14 	 i_din_b = 143 	 i_addr_a = 4 	 i_addr_b = 938
# i_en_a = 1 	 i_en_b = 1 	 i_we_a = 0 	 i_we_b = 0 	 i_din_a = 102 	 i_din_b = 175 	 i_addr_a = 165 	 i_addr_b = 1022
# i_en_a = 1 	 i_en_b = 1 	 i_we_a = 0 	 i_we_b = 1 	 i_din_a = 59 	 i_din_b = 208 	 i_addr_a = 230 	 i_addr_b = 938
# i_en_a = 1 	 i_en_b = 1 	 i_we_a = 1 	 i_we_b = 1 	 i_din_a = 89 	 i_din_b = 222 	 i_addr_a = 461 	 i_addr_b = 606
# i_en_a = 1 	 i_en_b = 1 	 i_we_a = 0 	 i_we_b = 1 	 i_din_a = 118 	 i_din_b = 144 	 i_addr_a = 305 	 i_addr_b = 524
# i_en_a = 0 	 i_en_b = 1 	 i_we_a = 1 	 i_we_b = 1 	 i_din_a = 39 	 i_din_b = 176 	 i_addr_a = 336 	 i_addr_b = 837
# i_en_a = 1 	 i_en_b = 1 	 i_we_a = 0 	 i_we_b = 0 	 i_din_a = 89 	 i_din_b = 211 	 i_addr_a = 504 	 i_addr_b = 925
# [GEN] number of transactions          50
# i_en_a = 0 	 i_en_b = 0 	 i_we_a = 0 	 i_we_b = 0 	 i_din_a = 0 	 i_din_b = 0 	 i_addr_a = 0 	 i_addr_b = 0
#                   40[SCO] addr_a = 0 	 din_a = 0 	 dout_a = 0 	  error_a = 0 	 error_a = 0
# [REF][A] READ  addr=0 bank=0 data=0x0 err=0 time=40
# [REF][B] READ  addr=0 bank=0 data=0x0 err=0 time=40
# i_en_a = 1 	 i_en_b = 1 	 i_we_a = 1 	 i_we_b = 1 	 i_din_a = 67 	 i_din_b = 245 	 i_addr_a = 497 	 i_addr_b = 662
# [REF][A] WRITE addr=497 bank=1 enc=0xd43 time=80
# [REF][B] WRITE addr=662 bank=2 enc=0x1f5 time=80
# i_en_a = 1 	 i_en_b = 1 	 i_we_a = 1 	 i_we_b = 1 	 i_din_a = 15 	 i_din_b = 252 	 i_addr_a = 419 	 i_addr_b = 558
# [REF][A] WRITE addr=419 bank=3 enc=0x70f time=120
# [REF][B] WRITE addr=558 bank=2 enc=0x5fc time=120
# i_en_a = 1 	 i_en_b = 1 	 i_we_a = 0 	 i_we_b = 1 	 i_din_a = 60 	 i_din_b = 218 	 i_addr_a = 249 	 i_addr_b = 911
#                  160[MON] addr_a = 60 	 din_a = 249 	 dout_a = 0 	  error_a = 0 	 error_a = 0
# [REF][A] READ  addr=249 bank=1 data=0x0 err=0 time=160
# [REF][B] WRITE addr=911 bank=3 enc=0xcda time=160
# i_en_a = 1 	 i_en_b = 1 	 i_we_a = 0 	 i_we_b = 1 	 i_din_a = 15 	 i_din_b = 187 	 i_addr_a = 311 	 i_addr_b = 752
#                  200[MON] addr_a = 15 	 din_a = 311 	 dout_a = 0 	  error_a = 0 	 error_a = 0
# [REF][A] READ  addr=311 bank=3 data=0x0 err=0 time=200
# [REF][B] WRITE addr=752 bank=0 enc=0xebb time=200
# i_en_a = 1 	 i_en_b = 0 	 i_we_a = 0 	 i_we_b = 1 	 i_din_a = 33 	 i_din_b = 244 	 i_addr_a = 448 	 i_addr_b = 935
#                  240[MON] addr_a = 33 	 din_a = 448 	 dout_a = 0 	  error_a = 0 	 error_a = 0
# [REF][A] READ  addr=448 bank=0 data=0x0 err=0 time=240
# [REF][B] WRITE addr=935 bank=3 enc=0x2f4 time=240
# i_en_a = 1 	 i_en_b = 1 	 i_we_a = 1 	 i_we_b = 0 	 i_din_a = 79 	 i_din_b = 196 	 i_addr_a = 138 	 i_addr_b = 890
# [REF][A] WRITE addr=138 bank=2 enc=0xc4f time=280
# [REF][B] READ  addr=138 bank=2 data=0x0 err=0 time=280
# i_en_a = 1 	 i_en_b = 1 	 i_we_a = 0 	 i_we_b = 1 	 i_din_a = 43 	 i_din_b = 237 	 i_addr_a = 490 	 i_addr_b = 520
#                  320[MON] addr_a = 43 	 din_a = 490 	 dout_a = 0 	  error_a = 0 	 error_a = 0
# [REF][A] READ  addr=490 bank=2 data=0x0 err=0 time=320
# [REF][B] WRITE addr=520 bank=0 enc=0xfed time=320
# i_en_a = 1 	 i_en_b = 1 	 i_we_a = 0 	 i_we_b = 0 	 i_din_a = 0 	 i_din_b = 164 	 i_addr_a = 272 	 i_addr_b = 630
#                  360[SCO] addr_a = 0 	 din_a = 272 	 dout_a = 0 	  error_a = 0 	 error_a = 0
# [REF][A] READ  addr=272 bank=0 data=0x0 err=0 time=360
# [REF][B] READ  addr=272 bank=2 data=0x0 err=0 time=360
# i_en_a = 1 	 i_en_b = 1 	 i_we_a = 1 	 i_we_b = 0 	 i_din_a = 52 	 i_din_b = 143 	 i_addr_a = 45 	 i_addr_b = 900
# [REF][A] WRITE addr=45 bank=1 enc=0x534 time=400
# [REF][B] READ  addr=45 bank=0 data=0x0 err=0 time=400
# i_en_a = 1 	 i_en_b = 0 	 i_we_a = 1 	 i_we_b = 1 	 i_din_a = 96 	 i_din_b = 243 	 i_addr_a = 454 	 i_addr_b = 872
# [REF][A] WRITE addr=454 bank=2 enc=0x160 time=440
# [REF][B] WRITE addr=872 bank=0 enc=0x2f3 time=440
# i_en_a = 1 	 i_en_b = 1 	 i_we_a = 0 	 i_we_b = 0 	 i_din_a = 83 	 i_din_b = 231 	 i_addr_a = 354 	 i_addr_b = 605
#                  480[MON] addr_a = 83 	 din_a = 354 	 dout_a = 0 	  error_a = 0 	 error_a = 0
# [REF][A] READ  addr=354 bank=2 data=0x0 err=0 time=480
# [REF][B] READ  addr=354 bank=1 data=0x0 err=0 time=480
# i_en_a = 1 	 i_en_b = 1 	 i_we_a = 1 	 i_we_b = 1 	 i_din_a = 92 	 i_din_b = 230 	 i_addr_a = 461 	 i_addr_b = 622
# [REF][A] WRITE addr=461 bank=1 enc=0x35c time=520
# [REF][B] WRITE addr=622 bank=2 enc=0xee6 time=520
# i_en_a = 0 	 i_en_b = 1 	 i_we_a = 0 	 i_we_b = 1 	 i_din_a = 48 	 i_din_b = 209 	 i_addr_a = 118 	 i_addr_b = 715
#                  560[MON] addr_a = 48 	 din_a = 118 	 dout_a = 0 	  error_a = 0 	 error_a = 0
# [REF][A] READ  addr=118 bank=2 data=0x0 err=0 time=560
# [REF][B] WRITE addr=715 bank=3 enc=0xdd1 time=560
# i_en_a = 1 	 i_en_b = 0 	 i_we_a = 0 	 i_we_b = 0 	 i_din_a = 76 	 i_din_b = 170 	 i_addr_a = 155 	 i_addr_b = 664
#                  600[MON] addr_a = 76 	 din_a = 155 	 dout_a = 0 	  error_a = 0 	 error_a = 0
# [REF][A] READ  addr=155 bank=3 data=0x0 err=0 time=600
# [REF][B] READ  addr=155 bank=0 data=0x0 err=0 time=600
# i_en_a = 1 	 i_en_b = 1 	 i_we_a = 1 	 i_we_b = 1 	 i_din_a = 69 	 i_din_b = 211 	 i_addr_a = 442 	 i_addr_b = 961
# [REF][A] WRITE addr=442 bank=2 enc=0xe45 time=640
# [REF][B] WRITE addr=961 bank=1 enc=0x8d3 time=640
# i_en_a = 1 	 i_en_b = 1 	 i_we_a = 1 	 i_we_b = 0 	 i_din_a = 60 	 i_din_b = 134 	 i_addr_a = 139 	 i_addr_b = 860
# [REF][A] WRITE addr=139 bank=3 enc=0x23c time=680
# [REF][B] READ  addr=139 bank=0 data=0x0 err=0 time=680
# i_en_a = 1 	 i_en_b = 1 	 i_we_a = 0 	 i_we_b = 1 	 i_din_a = 108 	 i_din_b = 255 	 i_addr_a = 402 	 i_addr_b = 692
#                  720[MON] addr_a = 108 	 din_a = 402 	 dout_a = 0 	  error_a = 0 	 error_a = 0
# [REF][A] READ  addr=402 bank=2 data=0x0 err=0 time=720
# [REF][B] WRITE addr=692 bank=0 enc=0x3ff time=720
# i_en_a = 1 	 i_en_b = 1 	 i_we_a = 1 	 i_we_b = 0 	 i_din_a = 113 	 i_din_b = 157 	 i_addr_a = 374 	 i_addr_b = 785
# [REF][A] WRITE addr=374 bank=2 enc=0xb71 time=760
# [REF][B] READ  addr=374 bank=1 data=0x0 err=0 time=760
# i_en_a = 1 	 i_en_b = 1 	 i_we_a = 1 	 i_we_b = 1 	 i_din_a = 29 	 i_din_b = 198 	 i_addr_a = 195 	 i_addr_b = 650
# [REF][A] WRITE addr=195 bank=3 enc=0xb1d time=800
# [REF][B] WRITE addr=650 bank=2 enc=0x4c6 time=800
# i_en_a = 0 	 i_en_b = 1 	 i_we_a = 1 	 i_we_b = 1 	 i_din_a = 101 	 i_din_b = 197 	 i_addr_a = 9 	 i_addr_b = 857
# [REF][A] WRITE addr=9 bank=1 enc=0x465 time=840
# [REF][B] WRITE addr=857 bank=1 enc=0x2c5 time=840
# i_en_a = 1 	 i_en_b = 1 	 i_we_a = 1 	 i_we_b = 1 	 i_din_a = 89 	 i_din_b = 208 	 i_addr_a = 119 	 i_addr_b = 665
# [REF][A] WRITE addr=119 bank=3 enc=0x659 time=880
# [REF][B] WRITE addr=665 bank=1 enc=0xed0 time=880
# i_en_a = 1 	 i_en_b = 1 	 i_we_a = 0 	 i_we_b = 1 	 i_din_a = 14 	 i_din_b = 254 	 i_addr_a = 279 	 i_addr_b = 974
#                  920[MON] addr_a = 14 	 din_a = 279 	 dout_a = 0 	  error_a = 0 	 error_a = 0
# [REF][A] READ  addr=279 bank=3 data=0x0 err=0 time=920
# [REF][B] WRITE addr=974 bank=2 enc=0xfe time=920
# i_en_a = 1 	 i_en_b = 1 	 i_we_a = 0 	 i_we_b = 1 	 i_din_a = 46 	 i_din_b = 245 	 i_addr_a = 179 	 i_addr_b = 958
#                  960[MON] addr_a = 46 	 din_a = 179 	 dout_a = 0 	  error_a = 0 	 error_a = 0
# [REF][A] READ  addr=179 bank=3 data=0x0 err=0 time=960
# [REF][B] WRITE addr=958 bank=2 enc=0x1f5 time=960
# i_en_a = 1 	 i_en_b = 1 	 i_we_a = 1 	 i_we_b = 0 	 i_din_a = 68 	 i_din_b = 250 	 i_addr_a = 143 	 i_addr_b = 903
# [REF][A] WRITE addr=143 bank=3 enc=0xd44 time=1000
# [REF][B] READ  addr=143 bank=3 data=0x0 err=0 time=1000
# i_en_a = 1 	 i_en_b = 1 	 i_we_a = 0 	 i_we_b = 1 	 i_din_a = 7 	 i_din_b = 254 	 i_addr_a = 340 	 i_addr_b = 633
#                 1040[MON] addr_a = 7 	 din_a = 340 	 dout_a = 0 	  error_a = 0 	 error_a = 0
# [REF][A] READ  addr=340 bank=0 data=0x0 err=0 time=1040
# [REF][B] WRITE addr=633 bank=1 enc=0xfe time=1040
# i_en_a = 1 	 i_en_b = 1 	 i_we_a = 1 	 i_we_b = 0 	 i_din_a = 32 	 i_din_b = 182 	 i_addr_a = 63 	 i_addr_b = 715
# [REF][A] WRITE addr=63 bank=3 enc=0xa20 time=1080
# [REF][B] READ  addr=63 bank=3 data=0xd1 err=0 time=1080
# i_en_a = 1 	 i_en_b = 1 	 i_we_a = 0 	 i_we_b = 1 	 i_din_a = 87 	 i_din_b = 232 	 i_addr_a = 212 	 i_addr_b = 1004
#                 1120[MON] addr_a = 87 	 din_a = 212 	 dout_a = 0 	  error_a = 0 	 error_a = 0
# [REF][A] READ  addr=212 bank=0 data=0x0 err=0 time=1120
# [REF][B] WRITE addr=1004 bank=0 enc=0xae8 time=1120
# i_en_a = 1 	 i_en_b = 1 	 i_we_a = 0 	 i_we_b = 1 	 i_din_a = 54 	 i_din_b = 151 	 i_addr_a = 489 	 i_addr_b = 676
#                 1160[MON] addr_a = 54 	 din_a = 489 	 dout_a = 0 	  error_a = 0 	 error_a = 0
# [REF][A] READ  addr=489 bank=1 data=0x0 err=0 time=1160
# [REF][B] WRITE addr=676 bank=0 enc=0x597 time=1160
# i_en_a = 1 	 i_en_b = 1 	 i_we_a = 0 	 i_we_b = 1 	 i_din_a = 24 	 i_din_b = 183 	 i_addr_a = 426 	 i_addr_b = 801
#                 1200[MON] addr_a = 24 	 din_a = 426 	 dout_a = 0 	  error_a = 0 	 error_a = 0
# [REF][A] READ  addr=426 bank=2 data=0x0 err=0 time=1200
# [REF][B] WRITE addr=801 bank=1 enc=0xfb7 time=1200
# i_en_a = 1 	 i_en_b = 0 	 i_we_a = 1 	 i_we_b = 1 	 i_din_a = 46 	 i_din_b = 222 	 i_addr_a = 47 	 i_addr_b = 801
# [REF][A] WRITE addr=47 bank=3 enc=0xe2e time=1240
# [REF][B] WRITE addr=801 bank=1 enc=0xade time=1240
# i_en_a = 1 	 i_en_b = 1 	 i_we_a = 0 	 i_we_b = 0 	 i_din_a = 77 	 i_din_b = 187 	 i_addr_a = 262 	 i_addr_b = 538
#                 1280[MON] addr_a = 77 	 din_a = 262 	 dout_a = 0 	  error_a = 0 	 error_a = 0
# [REF][A] READ  addr=262 bank=2 data=0x0 err=0 time=1280
# [REF][B] READ  addr=262 bank=2 data=0x0 err=0 time=1280
# i_en_a = 1 	 i_en_b = 1 	 i_we_a = 1 	 i_we_b = 0 	 i_din_a = 39 	 i_din_b = 168 	 i_addr_a = 487 	 i_addr_b = 1018
# [REF][A] WRITE addr=487 bank=3 enc=0xa27 time=1320
# [REF][B] READ  addr=487 bank=2 data=0x0 err=0 time=1320
# i_en_a = 1 	 i_en_b = 0 	 i_we_a = 0 	 i_we_b = 1 	 i_din_a = 27 	 i_din_b = 245 	 i_addr_a = 361 	 i_addr_b = 875
#                 1360[MON] addr_a = 27 	 din_a = 361 	 dout_a = 0 	  error_a = 0 	 error_a = 0
# [REF][A] READ  addr=361 bank=1 data=0x0 err=0 time=1360
# [REF][B] WRITE addr=875 bank=3 enc=0x1f5 time=1360
# i_en_a = 1 	 i_en_b = 1 	 i_we_a = 1 	 i_we_b = 0 	 i_din_a = 42 	 i_din_b = 239 	 i_addr_a = 167 	 i_addr_b = 579
# [REF][A] WRITE addr=167 bank=3 enc=0x82a time=1400
# [REF][B] READ  addr=167 bank=3 data=0x0 err=0 time=1400
# i_en_a = 1 	 i_en_b = 1 	 i_we_a = 1 	 i_we_b = 0 	 i_din_a = 1 	 i_din_b = 123 	 i_addr_a = 186 	 i_addr_b = 1017
# [REF][A] WRITE addr=186 bank=2 enc=0x301 time=1440
# [REF][B] READ  addr=186 bank=1 data=0x0 err=0 time=1440
# i_en_a = 1 	 i_en_b = 1 	 i_we_a = 1 	 i_we_b = 0 	 i_din_a = 52 	 i_din_b = 191 	 i_addr_a = 462 	 i_addr_b = 584
# [REF][A] WRITE addr=462 bank=2 enc=0x534 time=1480
# [REF][B] READ  addr=462 bank=0 data=0x0 err=0 time=1480
# i_en_a = 1 	 i_en_b = 1 	 i_we_a = 0 	 i_we_b = 0 	 i_din_a = 34 	 i_din_b = 165 	 i_addr_a = 459 	 i_addr_b = 691
#                 1520[MON] addr_a = 34 	 din_a = 459 	 dout_a = 0 	  error_a = 0 	 error_a = 0
# [REF][A] READ  addr=459 bank=3 data=0x0 err=0 time=1520
# [REF][B] READ  addr=459 bank=3 data=0x0 err=0 time=1520
# i_en_a = 1 	 i_en_b = 1 	 i_we_a = 1 	 i_we_b = 1 	 i_din_a = 91 	 i_din_b = 151 	 i_addr_a = 271 	 i_addr_b = 813
# [REF][A] WRITE addr=271 bank=3 enc=0x35b time=1560
# [REF][B] WRITE addr=813 bank=1 enc=0x597 time=1560
# i_en_a = 1 	 i_en_b = 1 	 i_we_a = 1 	 i_we_b = 0 	 i_din_a = 84 	 i_din_b = 185 	 i_addr_a = 298 	 i_addr_b = 559
# [REF][A] WRITE addr=298 bank=2 enc=0x454 time=1600
# [REF][B] READ  addr=298 bank=3 data=0x0 err=0 time=1600
# i_en_a = 1 	 i_en_b = 1 	 i_we_a = 0 	 i_we_b = 0 	 i_din_a = 39 	 i_din_b = 202 	 i_addr_a = 55 	 i_addr_b = 549
#                 1640[MON] addr_a = 39 	 din_a = 55 	 dout_a = 0 	  error_a = 0 	 error_a = 0
# [REF][A] READ  addr=55 bank=3 data=0x0 err=0 time=1640
# [REF][B] READ  addr=55 bank=1 data=0x0 err=0 time=1640
# i_en_a = 0 	 i_en_b = 1 	 i_we_a = 0 	 i_we_b = 0 	 i_din_a = 46 	 i_din_b = 160 	 i_addr_a = 357 	 i_addr_b = 844
#                 1680[MON] addr_a = 46 	 din_a = 357 	 dout_a = 0 	  error_a = 0 	 error_a = 0
# [REF][A] READ  addr=357 bank=1 data=0x0 err=0 time=1680
# [REF][B] READ  addr=357 bank=0 data=0x0 err=0 time=1680
# i_en_a = 1 	 i_en_b = 1 	 i_we_a = 0 	 i_we_b = 0 	 i_din_a = 53 	 i_din_b = 180 	 i_addr_a = 230 	 i_addr_b = 908
#                 1720[MON] addr_a = 53 	 din_a = 230 	 dout_a = 0 	  error_a = 0 	 error_a = 0
# [REF][A] READ  addr=230 bank=2 data=0x0 err=0 time=1720
# [REF][B] READ  addr=230 bank=0 data=0x0 err=0 time=1720
# i_en_a = 1 	 i_en_b = 1 	 i_we_a = 0 	 i_we_b = 1 	 i_din_a = 18 	 i_din_b = 172 	 i_addr_a = 244 	 i_addr_b = 924
#                 1760[MON] addr_a = 18 	 din_a = 244 	 dout_a = 0 	  error_a = 0 	 error_a = 0
# [REF][A] READ  addr=244 bank=0 data=0x0 err=0 time=1760
# [REF][B] WRITE addr=924 bank=0 enc=0x7ac time=1760
# i_en_a = 1 	 i_en_b = 1 	 i_we_a = 0 	 i_we_b = 1 	 i_din_a = 14 	 i_din_b = 143 	 i_addr_a = 4 	 i_addr_b = 938
