transcript
# //  Questa Sim-64
# //  Version 2021.2_1 linux_x86_64 May 15 2021
# //
# //  Copyright 1991-2021 Mentor Graphics Corporation
# //  All Rights Reserved.
# //
# //  QuestaSim and its associated documentation contain trade
# //  secrets and commercial or financial information that are the property of
# //  Mentor Graphics Corporation and are privileged, confidential,
# //  and exempt from disclosure under the Freedom of Information Act,
# //  5 U.S.C. Section 552. Furthermore, this information
# //  is prohibited from disclosure under the Trade Secrets Act,
# //  18 U.S.C. Section 1905.
# //
# vsim -voptargs="+acc" top_testbench 
# Start time: 12:27:07 on Dec 02,2025
# ** Note: (vsim-8009) Loading existing optimized design _opt2
# Loading sv_std.std
# Loading work.dual_port_vif(fast)
# Loading work.dual_port(fast)
# Loading work.top_testbench_sv_unit(fast)
# Loading work.top_testbench(fast)
# Loading work.dual_port_vif(fast__2)
# Loading work.dual_port_memory_top_module2(fast)
# Loading work.hamming_encoder(fast)
# Loading work.hamming_decoder(fast)
# Loading work.dual_port_multi_bank_memory(fast)
# Loading work.decoder(fast)
# Loading work.dual_port_memory_latency(fast)
# ** Warning: (vsim-3015) [PCDPC] - Port size (8) does not match connection size (12) for port 'i_din_a'. The port definition is at: dual_port_memory_top_module2.sv(46).
#    Time: 0 ns  Iteration: 0  Instance: /top_testbench/dut File: top_testbench.sv Line: 33
# ** Warning: (vsim-3015) [PCDPC] - Port size (8) does not match connection size (12) for port 'i_din_b'. The port definition is at: dual_port_memory_top_module2.sv(47).
#    Time: 0 ns  Iteration: 0  Instance: /top_testbench/dut File: top_testbench.sv Line: 33
# ** Warning: (vsim-3015) [PCDPC] - Port size (5) does not match connection size (10) for port 'i_addr_a'. The port definition is at: dual_port_memory_top_module2.sv(48).
#    Time: 0 ns  Iteration: 0  Instance: /top_testbench/dut File: top_testbench.sv Line: 33
# ** Warning: (vsim-3015) [PCDPC] - Port size (5) does not match connection size (10) for port 'i_addr_b'. The port definition is at: dual_port_memory_top_module2.sv(49).
#    Time: 0 ns  Iteration: 0  Instance: /top_testbench/dut File: top_testbench.sv Line: 33
# ** Warning: (vsim-3015) [PCDPC] - Port size (8) does not match connection size (12) for port 'o_dout_a1'. The port definition is at: dual_port_memory_top_module2.sv(50).
#    Time: 0 ns  Iteration: 0  Instance: /top_testbench/dut File: top_testbench.sv Line: 33
# ** Warning: (vsim-3015) [PCDPC] - Port size (8) does not match connection size (12) for port 'o_dout_b1'. The port definition is at: dual_port_memory_top_module2.sv(51).
#    Time: 0 ns  Iteration: 0  Instance: /top_testbench/dut File: top_testbench.sv Line: 33
add wave -position insertpoint  \
sim:/top_testbench/dut/WIDTH \
sim:/top_testbench/dut/CODE_WIDTH \
sim:/top_testbench/dut/ADDR_WIDTH \
sim:/top_testbench/dut/WRITE_LATENCY_A \
sim:/top_testbench/dut/READ_LATENCY_A \
sim:/top_testbench/dut/WRITE_LATENCY_B \
sim:/top_testbench/dut/READ_LATENCY_B \
sim:/top_testbench/dut/NUM_BANK \
sim:/top_testbench/dut/DEPTH \
sim:/top_testbench/dut/i_clk_a \
sim:/top_testbench/dut/i_clk_b \
sim:/top_testbench/dut/i_en_a \
sim:/top_testbench/dut/i_en_b \
sim:/top_testbench/dut/i_we_a \
sim:/top_testbench/dut/i_we_b \
sim:/top_testbench/dut/i_din_a \
sim:/top_testbench/dut/i_din_b \
sim:/top_testbench/dut/i_addr_a \
sim:/top_testbench/dut/i_addr_b \
sim:/top_testbench/dut/o_dout_a1 \
sim:/top_testbench/dut/o_dout_b1 \
sim:/top_testbench/dut/out_a \
sim:/top_testbench/dut/out_b \
sim:/top_testbench/dut/e_out_a \
sim:/top_testbench/dut/e_out_b \
sim:/top_testbench/dut/o_error_detected_a \
sim:/top_testbench/dut/o_error_detected_b \
sim:/top_testbench/dut/o_error_corrected_a \
sim:/top_testbench/dut/o_error_corrected_b \
sim:/top_testbench/dut/m_dout_a \
sim:/top_testbench/dut/m_dout_b
restart
# ** Note: (vsim-12125) Error and warning message counts have been reset to '0' because of 'restart'.
# ** Note: (vsim-8009) Loading existing optimized design _opt2
# Loading work.dual_port_vif(fast)
# Loading work.dual_port(fast)
# Loading work.top_testbench_sv_unit(fast)
# Loading work.top_testbench(fast)
# Loading work.dual_port_vif(fast__2)
# Loading work.dual_port_memory_top_module2(fast)
# Loading work.hamming_encoder(fast)
# Loading work.hamming_decoder(fast)
# Loading work.dual_port_multi_bank_memory(fast)
# Loading work.decoder(fast)
# Loading work.dual_port_memory_latency(fast)
# ** Warning: (vsim-3015) [PCDPC] - Port size (8) does not match connection size (12) for port 'i_din_a'. The port definition is at: dual_port_memory_top_module2.sv(46).
#    Time: 0 ns  Iteration: 0  Instance: /top_testbench/dut File: top_testbench.sv Line: 33
# ** Warning: (vsim-3015) [PCDPC] - Port size (8) does not match connection size (12) for port 'i_din_b'. The port definition is at: dual_port_memory_top_module2.sv(47).
#    Time: 0 ns  Iteration: 0  Instance: /top_testbench/dut File: top_testbench.sv Line: 33
# ** Warning: (vsim-3015) [PCDPC] - Port size (5) does not match connection size (10) for port 'i_addr_a'. The port definition is at: dual_port_memory_top_module2.sv(48).
#    Time: 0 ns  Iteration: 0  Instance: /top_testbench/dut File: top_testbench.sv Line: 33
# ** Warning: (vsim-3015) [PCDPC] - Port size (5) does not match connection size (10) for port 'i_addr_b'. The port definition is at: dual_port_memory_top_module2.sv(49).
#    Time: 0 ns  Iteration: 0  Instance: /top_testbench/dut File: top_testbench.sv Line: 33
# ** Warning: (vsim-3015) [PCDPC] - Port size (8) does not match connection size (12) for port 'o_dout_a1'. The port definition is at: dual_port_memory_top_module2.sv(50).
#    Time: 0 ns  Iteration: 0  Instance: /top_testbench/dut File: top_testbench.sv Line: 33
# ** Warning: (vsim-3015) [PCDPC] - Port size (8) does not match connection size (12) for port 'o_dout_b1'. The port definition is at: dual_port_memory_top_module2.sv(51).
#    Time: 0 ns  Iteration: 0  Instance: /top_testbench/dut File: top_testbench.sv Line: 33
run -all
# i_en_a = 1 	 i_en_b = 1 	 i_we_a = 1 	 i_we_b = 0 	 i_din_a = 4 	 i_din_b = 188 	 i_addr_a = 401 	 i_addr_b = 999
# i_en_a = 0 	 i_en_b = 1 	 i_we_a = 1 	 i_we_b = 0 	 i_din_a = 51 	 i_din_b = 139 	 i_addr_a = 378 	 i_addr_b = 924
# i_en_a = 1 	 i_en_b = 1 	 i_we_a = 0 	 i_we_b = 1 	 i_din_a = 31 	 i_din_b = 239 	 i_addr_a = 416 	 i_addr_b = 952
# i_en_a = 1 	 i_en_b = 1 	 i_we_a = 0 	 i_we_b = 0 	 i_din_a = 76 	 i_din_b = 204 	 i_addr_a = 140 	 i_addr_b = 536
# i_en_a = 1 	 i_en_b = 0 	 i_we_a = 1 	 i_we_b = 1 	 i_din_a = 12 	 i_din_b = 163 	 i_addr_a = 41 	 i_addr_b = 889
# i_en_a = 1 	 i_en_b = 1 	 i_we_a = 0 	 i_we_b = 0 	 i_din_a = 104 	 i_din_b = 200 	 i_addr_a = 70 	 i_addr_b = 534
# i_en_a = 0 	 i_en_b = 1 	 i_we_a = 0 	 i_we_b = 1 	 i_din_a = 115 	 i_din_b = 225 	 i_addr_a = 132 	 i_addr_b = 729
# i_en_a = 1 	 i_en_b = 1 	 i_we_a = 0 	 i_we_b = 1 	 i_din_a = 93 	 i_din_b = 223 	 i_addr_a = 182 	 i_addr_b = 828
# i_en_a = 1 	 i_en_b = 1 	 i_we_a = 0 	 i_we_b = 1 	 i_din_a = 100 	 i_din_b = 155 	 i_addr_a = 423 	 i_addr_b = 822
# i_en_a = 1 	 i_en_b = 1 	 i_we_a = 1 	 i_we_b = 1 	 i_din_a = 115 	 i_din_b = 150 	 i_addr_a = 263 	 i_addr_b = 1022
# i_en_a = 1 	 i_en_b = 1 	 i_we_a = 1 	 i_we_b = 0 	 i_din_a = 84 	 i_din_b = 186 	 i_addr_a = 95 	 i_addr_b = 735
# i_en_a = 0 	 i_en_b = 1 	 i_we_a = 0 	 i_we_b = 1 	 i_din_a = 117 	 i_din_b = 246 	 i_addr_a = 89 	 i_addr_b = 515
# i_en_a = 1 	 i_en_b = 1 	 i_we_a = 0 	 i_we_b = 0 	 i_din_a = 18 	 i_din_b = 129 	 i_addr_a = 138 	 i_addr_b = 830
# i_en_a = 1 	 i_en_b = 1 	 i_we_a = 0 	 i_we_b = 1 	 i_din_a = 57 	 i_din_b = 180 	 i_addr_a = 239 	 i_addr_b = 846
# i_en_a = 1 	 i_en_b = 1 	 i_we_a = 1 	 i_we_b = 0 	 i_din_a = 42 	 i_din_b = 245 	 i_addr_a = 176 	 i_addr_b = 759
# i_en_a = 1 	 i_en_b = 1 	 i_we_a = 1 	 i_we_b = 1 	 i_din_a = 86 	 i_din_b = 146 	 i_addr_a = 411 	 i_addr_b = 578
# i_en_a = 1 	 i_en_b = 1 	 i_we_a = 1 	 i_we_b = 1 	 i_din_a = 25 	 i_din_b = 210 	 i_addr_a = 341 	 i_addr_b = 889
# i_en_a = 1 	 i_en_b = 1 	 i_we_a = 0 	 i_we_b = 0 	 i_din_a = 102 	 i_din_b = 226 	 i_addr_a = 370 	 i_addr_b = 883
# i_en_a = 1 	 i_en_b = 1 	 i_we_a = 0 	 i_we_b = 0 	 i_din_a = 121 	 i_din_b = 216 	 i_addr_a = 461 	 i_addr_b = 955
# i_en_a = 1 	 i_en_b = 1 	 i_we_a = 0 	 i_we_b = 1 	 i_din_a = 55 	 i_din_b = 246 	 i_addr_a = 170 	 i_addr_b = 746
# i_en_a = 1 	 i_en_b = 0 	 i_we_a = 1 	 i_we_b = 0 	 i_din_a = 22 	 i_din_b = 220 	 i_addr_a = 388 	 i_addr_b = 1003
# i_en_a = 1 	 i_en_b = 1 	 i_we_a = 0 	 i_we_b = 0 	 i_din_a = 10 	 i_din_b = 146 	 i_addr_a = 322 	 i_addr_b = 574
# i_en_a = 1 	 i_en_b = 1 	 i_we_a = 1 	 i_we_b = 1 	 i_din_a = 11 	 i_din_b = 239 	 i_addr_a = 297 	 i_addr_b = 581
# i_en_a = 1 	 i_en_b = 1 	 i_we_a = 0 	 i_we_b = 0 	 i_din_a = 42 	 i_din_b = 248 	 i_addr_a = 209 	 i_addr_b = 514
# i_en_a = 0 	 i_en_b = 1 	 i_we_a = 0 	 i_we_b = 0 	 i_din_a = 62 	 i_din_b = 255 	 i_addr_a = 114 	 i_addr_b = 945
# i_en_a = 1 	 i_en_b = 1 	 i_we_a = 1 	 i_we_b = 0 	 i_din_a = 76 	 i_din_b = 151 	 i_addr_a = 342 	 i_addr_b = 748
# i_en_a = 1 	 i_en_b = 1 	 i_we_a = 1 	 i_we_b = 0 	 i_din_a = 98 	 i_din_b = 136 	 i_addr_a = 358 	 i_addr_b = 799
# i_en_a = 1 	 i_en_b = 1 	 i_we_a = 0 	 i_we_b = 0 	 i_din_a = 93 	 i_din_b = 247 	 i_addr_a = 269 	 i_addr_b = 732
# i_en_a = 1 	 i_en_b = 1 	 i_we_a = 0 	 i_we_b = 1 	 i_din_a = 26 	 i_din_b = 250 	 i_addr_a = 306 	 i_addr_b = 629
# i_en_a = 1 	 i_en_b = 1 	 i_we_a = 1 	 i_we_b = 1 	 i_din_a = 72 	 i_din_b = 138 	 i_addr_a = 287 	 i_addr_b = 940
# i_en_a = 1 	 i_en_b = 1 	 i_we_a = 1 	 i_we_b = 1 	 i_din_a = 32 	 i_din_b = 140 	 i_addr_a = 280 	 i_addr_b = 570
# i_en_a = 1 	 i_en_b = 1 	 i_we_a = 1 	 i_we_b = 1 	 i_din_a = 85 	 i_din_b = 132 	 i_addr_a = 114 	 i_addr_b = 731
# i_en_a = 1 	 i_en_b = 1 	 i_we_a = 1 	 i_we_b = 1 	 i_din_a = 68 	 i_din_b = 248 	 i_addr_a = 323 	 i_addr_b = 987
# i_en_a = 1 	 i_en_b = 1 	 i_we_a = 0 	 i_we_b = 0 	 i_din_a = 71 	 i_din_b = 125 	 i_addr_a = 90 	 i_addr_b = 961
# i_en_a = 1 	 i_en_b = 1 	 i_we_a = 1 	 i_we_b = 0 	 i_din_a = 23 	 i_din_b = 124 	 i_addr_a = 389 	 i_addr_b = 797
# i_en_a = 1 	 i_en_b = 1 	 i_we_a = 1 	 i_we_b = 1 	 i_din_a = 61 	 i_din_b = 220 	 i_addr_a = 174 	 i_addr_b = 828
# i_en_a = 1 	 i_en_b = 1 	 i_we_a = 1 	 i_we_b = 0 	 i_din_a = 6 	 i_din_b = 191 	 i_addr_a = 352 	 i_addr_b = 658
# i_en_a = 1 	 i_en_b = 1 	 i_we_a = 0 	 i_we_b = 1 	 i_din_a = 75 	 i_din_b = 152 	 i_addr_a = 105 	 i_addr_b = 805
# i_en_a = 1 	 i_en_b = 1 	 i_we_a = 1 	 i_we_b = 0 	 i_din_a = 69 	 i_din_b = 164 	 i_addr_a = 183 	 i_addr_b = 649
# i_en_a = 1 	 i_en_b = 1 	 i_we_a = 1 	 i_we_b = 0 	 i_din_a = 49 	 i_din_b = 161 	 i_addr_a = 282 	 i_addr_b = 675
# i_en_a = 1 	 i_en_b = 1 	 i_we_a = 1 	 i_we_b = 1 	 i_din_a = 122 	 i_din_b = 195 	 i_addr_a = 242 	 i_addr_b = 546
# i_en_a = 1 	 i_en_b = 1 	 i_we_a = 1 	 i_we_b = 0 	 i_din_a = 34 	 i_din_b = 195 	 i_addr_a = 187 	 i_addr_b = 621
# i_en_a = 1 	 i_en_b = 1 	 i_we_a = 0 	 i_we_b = 0 	 i_din_a = 95 	 i_din_b = 166 	 i_addr_a = 498 	 i_addr_b = 806
# i_en_a = 1 	 i_en_b = 1 	 i_we_a = 0 	 i_we_b = 1 	 i_din_a = 80 	 i_din_b = 177 	 i_addr_a = 379 	 i_addr_b = 954
# i_en_a = 1 	 i_en_b = 1 	 i_we_a = 1 	 i_we_b = 1 	 i_din_a = 66 	 i_din_b = 146 	 i_addr_a = 41 	 i_addr_b = 586
# i_en_a = 1 	 i_en_b = 1 	 i_we_a = 1 	 i_we_b = 1 	 i_din_a = 62 	 i_din_b = 244 	 i_addr_a = 306 	 i_addr_b = 810
# i_en_a = 1 	 i_en_b = 1 	 i_we_a = 0 	 i_we_b = 0 	 i_din_a = 92 	 i_din_b = 233 	 i_addr_a = 331 	 i_addr_b = 1014
# i_en_a = 1 	 i_en_b = 1 	 i_we_a = 1 	 i_we_b = 1 	 i_din_a = 38 	 i_din_b = 207 	 i_addr_a = 239 	 i_addr_b = 767
# i_en_a = 1 	 i_en_b = 1 	 i_we_a = 1 	 i_we_b = 0 	 i_din_a = 25 	 i_din_b = 239 	 i_addr_a = 344 	 i_addr_b = 536
# i_en_a = 1 	 i_en_b = 1 	 i_we_a = 0 	 i_we_b = 1 	 i_din_a = 5 	 i_din_b = 223 	 i_addr_a = 10 	 i_addr_b = 749
# i_en_a = 1 	 i_en_b = 0 	 i_we_a = 1 	 i_we_b = 0 	 i_din_a = 4 	 i_din_b = 0 	 i_addr_a = 401 	 i_addr_b = 0
# [REF][A] WRITE addr=401 bank=1 enc=0x604 time=10
# i_en_a = 0 	 i_en_b = 1 	 i_we_a = 0 	 i_we_b = 0 	 i_din_a = 0 	 i_din_b = 188 	 i_addr_a = 0 	 i_addr_b = 999
# i_en_a = 0 	 i_en_b = 0 	 i_we_a = 1 	 i_we_b = 0 	 i_din_a = 51 	 i_din_b = 0 	 i_addr_a = 378 	 i_addr_b = 0
# [REF][B] READ  addr=0 bank=3 data=0x0 err=0 time=20
# [REF][A] WRITE addr=378 bank=2 enc=0x533 time=20
# [SCO] PORT_A PASS: addr=0 din=0 dout=0 err_ref=0 err_mon=0
# [SCO] PORT_B PASS: addr=999 din=0 dout=0 err_ref=0 err_mon=0
# i_en_a = 1 	 i_en_b = 0 	 i_we_a = 0 	 i_we_b = 0 	 i_din_a = 31 	 i_din_b = 0 	 i_addr_a = 416 	 i_addr_b = 0
# [REF][A] READ  addr=416 bank=0 data=0x0 err=0 time=30
# i_en_a = 0 	 i_en_b = 1 	 i_we_a = 0 	 i_we_b = 0 	 i_din_a = 0 	 i_din_b = 139 	 i_addr_a = 0 	 i_addr_b = 924
# i_en_a = 1 	 i_en_b = 0 	 i_we_a = 0 	 i_we_b = 0 	 i_din_a = 76 	 i_din_b = 0 	 i_addr_a = 140 	 i_addr_b = 0
# [REF][B] READ  addr=0 bank=0 data=0x0 err=0 time=40
# [REF][A] READ  addr=140 bank=0 data=0x0 err=0 time=40
# [SCO] PORT_A PASS: addr=0 din=0 dout=0 err_ref=0 err_mon=0
# [SCO] PORT_B PASS: addr=924 din=0 dout=0 err_ref=0 err_mon=0
# i_en_a = 1 	 i_en_b = 0 	 i_we_a = 1 	 i_we_b = 0 	 i_din_a = 12 	 i_din_b = 0 	 i_addr_a = 41 	 i_addr_b = 0
# [REF][A] WRITE addr=41 bank=1 enc=0x10c time=50
# i_en_a = 0 	 i_en_b = 1 	 i_we_a = 0 	 i_we_b = 1 	 i_din_a = 0 	 i_din_b = 239 	 i_addr_a = 0 	 i_addr_b = 952
# i_en_a = 1 	 i_en_b = 0 	 i_we_a = 0 	 i_we_b = 0 	 i_din_a = 104 	 i_din_b = 0 	 i_addr_a = 70 	 i_addr_b = 0
# [REF][B] WRITE addr=952 bank=0 enc=0xaef time=60
# [REF][A] READ  addr=70 bank=2 data=0x0 err=0 time=60
# [SCO] PORT_A PASS: addr=70 din=0 dout=0 err_ref=0 err_mon=0
# [SCO] PORT_B PASS: addr=0 din=0 dout=0 err_ref=0 err_mon=0
# i_en_a = 0 	 i_en_b = 0 	 i_we_a = 0 	 i_we_b = 0 	 i_din_a = 115 	 i_din_b = 0 	 i_addr_a = 132 	 i_addr_b = 0
# [REF][A] READ  addr=132 bank=0 data=0x0 err=0 time=70
# i_en_a = 0 	 i_en_b = 1 	 i_we_a = 0 	 i_we_b = 0 	 i_din_a = 0 	 i_din_b = 204 	 i_addr_a = 0 	 i_addr_b = 536
# i_en_a = 1 	 i_en_b = 0 	 i_we_a = 0 	 i_we_b = 0 	 i_din_a = 93 	 i_din_b = 0 	 i_addr_a = 182 	 i_addr_b = 0
# [REF][B] READ  addr=0 bank=0 data=0x0 err=0 time=80
# [REF][A] READ  addr=182 bank=2 data=0x0 err=0 time=80
# [SCO] PORT_A PASS: addr=0 din=0 dout=0 err_ref=0 err_mon=0
# [SCO] PORT_B PASS: addr=536 din=0 dout=0 err_ref=0 err_mon=0
# i_en_a = 1 	 i_en_b = 0 	 i_we_a = 0 	 i_we_b = 0 	 i_din_a = 100 	 i_din_b = 0 	 i_addr_a = 423 	 i_addr_b = 0
# [REF][A] READ  addr=423 bank=3 data=0x0 err=0 time=90
# i_en_a = 0 	 i_en_b = 0 	 i_we_a = 0 	 i_we_b = 1 	 i_din_a = 0 	 i_din_b = 163 	 i_addr_a = 0 	 i_addr_b = 889
# i_en_a = 1 	 i_en_b = 0 	 i_we_a = 1 	 i_we_b = 0 	 i_din_a = 115 	 i_din_b = 0 	 i_addr_a = 263 	 i_addr_b = 0
# [REF][B] WRITE addr=889 bank=1 enc=0xa3 time=100
# [REF][A] WRITE addr=263 bank=3 enc=0xe73 time=100
# i_en_a = 1 	 i_en_b = 0 	 i_we_a = 1 	 i_we_b = 0 	 i_din_a = 84 	 i_din_b = 0 	 i_addr_a = 95 	 i_addr_b = 0
# [REF][A] WRITE addr=95 bank=3 enc=0x454 time=110
# i_en_a = 0 	 i_en_b = 1 	 i_we_a = 0 	 i_we_b = 0 	 i_din_a = 0 	 i_din_b = 200 	 i_addr_a = 0 	 i_addr_b = 534
# i_en_a = 0 	 i_en_b = 0 	 i_we_a = 0 	 i_we_b = 0 	 i_din_a = 117 	 i_din_b = 0 	 i_addr_a = 89 	 i_addr_b = 0
# [REF][B] READ  addr=0 bank=2 data=0x0 err=0 time=120
# [REF][A] READ  addr=89 bank=1 data=0x0 err=0 time=120
# [SCO] PORT_A PASS: addr=0 din=0 dout=0 err_ref=0 err_mon=0
# [SCO] PORT_B PASS: addr=534 din=0 dout=0 err_ref=0 err_mon=0
# [SCO] PORT_A PASS: addr=89 din=0 dout=0 err_ref=0 err_mon=0
# [SCO] PORT_B PASS: addr=0 din=0 dout=0 err_ref=0 err_mon=0
# i_en_a = 1 	 i_en_b = 0 	 i_we_a = 0 	 i_we_b = 0 	 i_din_a = 18 	 i_din_b = 0 	 i_addr_a = 138 	 i_addr_b = 0
# [REF][A] READ  addr=138 bank=2 data=0x0 err=0 time=130
# i_en_a = 0 	 i_en_b = 1 	 i_we_a = 0 	 i_we_b = 1 	 i_din_a = 0 	 i_din_b = 225 	 i_addr_a = 0 	 i_addr_b = 729
# i_en_a = 1 	 i_en_b = 0 	 i_we_a = 0 	 i_we_b = 0 	 i_din_a = 57 	 i_din_b = 0 	 i_addr_a = 239 	 i_addr_b = 0
# [REF][B] WRITE addr=729 bank=1 enc=0xee1 time=140
# [REF][A] READ  addr=239 bank=3 data=0x0 err=0 time=140
# [SCO] PORT_A PASS: addr=239 din=0 dout=0 err_ref=0 err_mon=0
# [SCO] PORT_B PASS: addr=0 din=0 dout=0 err_ref=0 err_mon=0
# i_en_a = 1 	 i_en_b = 0 	 i_we_a = 1 	 i_we_b = 0 	 i_din_a = 42 	 i_din_b = 0 	 i_addr_a = 176 	 i_addr_b = 0
# [REF][A] WRITE addr=176 bank=0 enc=0x82a time=150
# i_en_a = 0 	 i_en_b = 1 	 i_we_a = 0 	 i_we_b = 1 	 i_din_a = 0 	 i_din_b = 223 	 i_addr_a = 0 	 i_addr_b = 828
# i_en_a = 1 	 i_en_b = 0 	 i_we_a = 1 	 i_we_b = 0 	 i_din_a = 86 	 i_din_b = 0 	 i_addr_a = 411 	 i_addr_b = 0
# [REF][B] WRITE addr=828 bank=0 enc=0x9df time=160
# [REF][A] WRITE addr=411 bank=3 enc=0x156 time=160
# i_en_a = 1 	 i_en_b = 0 	 i_we_a = 1 	 i_we_b = 0 	 i_din_a = 25 	 i_din_b = 0 	 i_addr_a = 341 	 i_addr_b = 0
# [REF][A] WRITE addr=341 bank=1 enc=0xd19 time=170
# i_en_a = 0 	 i_en_b = 1 	 i_we_a = 0 	 i_we_b = 1 	 i_din_a = 0 	 i_din_b = 155 	 i_addr_a = 0 	 i_addr_b = 822
# i_en_a = 1 	 i_en_b = 0 	 i_we_a = 0 	 i_we_b = 0 	 i_din_a = 102 	 i_din_b = 0 	 i_addr_a = 370 	 i_addr_b = 0
# [REF][B] WRITE addr=822 bank=2 enc=0x49b time=180
# [REF][A] READ  addr=370 bank=2 data=0x0 err=0 time=180
# [SCO] PORT_A PASS: addr=370 din=0 dout=0 err_ref=0 err_mon=0
# [SCO] PORT_B PASS: addr=0 din=0 dout=0 err_ref=0 err_mon=0
# i_en_a = 1 	 i_en_b = 0 	 i_we_a = 0 	 i_we_b = 0 	 i_din_a = 121 	 i_din_b = 0 	 i_addr_a = 461 	 i_addr_b = 0
# [REF][A] READ  addr=461 bank=1 data=0x0 err=0 time=190
# [SCO] PORT_A PASS: addr=461 din=0 dout=0 err_ref=0 err_mon=0
# [SCO] PORT_B PASS: addr=0 din=0 dout=0 err_ref=0 err_mon=0
# i_en_a = 0 	 i_en_b = 1 	 i_we_a = 0 	 i_we_b = 1 	 i_din_a = 0 	 i_din_b = 150 	 i_addr_a = 0 	 i_addr_b = 1022
# i_en_a = 1 	 i_en_b = 0 	 i_we_a = 0 	 i_we_b = 0 	 i_din_a = 55 	 i_din_b = 0 	 i_addr_a = 170 	 i_addr_b = 0
# [REF][B] WRITE addr=1022 bank=2 enc=0x696 time=200
# [REF][A] READ  addr=170 bank=2 data=0x0 err=0 time=200
# [SCO] PORT_A PASS: addr=170 din=0 dout=0 err_ref=0 err_mon=0
# [SCO] PORT_B PASS: addr=0 din=0 dout=0 err_ref=0 err_mon=0
# i_en_a = 1 	 i_en_b = 0 	 i_we_a = 1 	 i_we_b = 0 	 i_din_a = 22 	 i_din_b = 0 	 i_addr_a = 388 	 i_addr_b = 0
# [REF][A] WRITE addr=388 bank=0 enc=0xa16 time=210
# i_en_a = 0 	 i_en_b = 1 	 i_we_a = 0 	 i_we_b = 0 	 i_din_a = 0 	 i_din_b = 186 	 i_addr_a = 0 	 i_addr_b = 735
# i_en_a = 1 	 i_en_b = 0 	 i_we_a = 0 	 i_we_b = 0 	 i_din_a = 10 	 i_din_b = 0 	 i_addr_a = 322 	 i_addr_b = 0
# [REF][B] READ  addr=0 bank=3 data=0x0 err=0 time=220
# [REF][A] READ  addr=322 bank=2 data=0x0 err=0 time=220
# [SCO] PORT_A PASS: addr=0 din=0 dout=0 err_ref=0 err_mon=0
# [SCO] PORT_B PASS: addr=735 din=0 dout=0 err_ref=0 err_mon=0
# i_en_a = 1 	 i_en_b = 0 	 i_we_a = 1 	 i_we_b = 0 	 i_din_a = 11 	 i_din_b = 0 	 i_addr_a = 297 	 i_addr_b = 0
# [REF][A] WRITE addr=297 bank=1 enc=0x10b time=230
# i_en_a = 0 	 i_en_b = 1 	 i_we_a = 0 	 i_we_b = 1 	 i_din_a = 0 	 i_din_b = 246 	 i_addr_a = 0 	 i_addr_b = 515
# i_en_a = 1 	 i_en_b = 0 	 i_we_a = 0 	 i_we_b = 0 	 i_din_a = 42 	 i_din_b = 0 	 i_addr_a = 209 	 i_addr_b = 0
# [REF][B] WRITE addr=515 bank=3 enc=0x7f6 time=240
# [REF][A] READ  addr=209 bank=1 data=0x0 err=0 time=240
# [SCO] PORT_A PASS: addr=209 din=0 dout=0 err_ref=0 err_mon=0
# [SCO] PORT_B PASS: addr=0 din=0 dout=0 err_ref=0 err_mon=0
# i_en_a = 0 	 i_en_b = 0 	 i_we_a = 0 	 i_we_b = 0 	 i_din_a = 62 	 i_din_b = 0 	 i_addr_a = 114 	 i_addr_b = 0
# [REF][A] READ  addr=114 bank=2 data=0x0 err=0 time=250
# i_en_a = 0 	 i_en_b = 1 	 i_we_a = 0 	 i_we_b = 0 	 i_din_a = 0 	 i_din_b = 129 	 i_addr_a = 0 	 i_addr_b = 830
# i_en_a = 1 	 i_en_b = 0 	 i_we_a = 1 	 i_we_b = 0 	 i_din_a = 76 	 i_din_b = 0 	 i_addr_a = 342 	 i_addr_b = 0
# [REF][B] READ  addr=0 bank=2 data=0x0 err=0 time=260
# [REF][A] WRITE addr=342 bank=2 enc=0xa4c time=260
# [SCO] PORT_A PASS: addr=0 din=0 dout=0 err_ref=0 err_mon=0
# [SCO] PORT_B PASS: addr=830 din=0 dout=0 err_ref=0 err_mon=0
# i_en_a = 1 	 i_en_b = 0 	 i_we_a = 1 	 i_we_b = 0 	 i_din_a = 98 	 i_din_b = 0 	 i_addr_a = 358 	 i_addr_b = 0
# [REF][A] WRITE addr=358 bank=2 enc=0x462 time=270
# i_en_a = 0 	 i_en_b = 1 	 i_we_a = 0 	 i_we_b = 1 	 i_din_a = 0 	 i_din_b = 180 	 i_addr_a = 0 	 i_addr_b = 846
# i_en_a = 1 	 i_en_b = 0 	 i_we_a = 0 	 i_we_b = 0 	 i_din_a = 93 	 i_din_b = 0 	 i_addr_a = 269 	 i_addr_b = 0
# [REF][B] WRITE addr=846 bank=2 enc=0x9b4 time=280
# [REF][A] READ  addr=269 bank=1 data=0x0 err=0 time=280
# [SCO] PORT_A PASS: addr=269 din=0 dout=0 err_ref=0 err_mon=0
# [SCO] PORT_B PASS: addr=0 din=0 dout=0 err_ref=0 err_mon=0
# i_en_a = 1 	 i_en_b = 0 	 i_we_a = 0 	 i_we_b = 0 	 i_din_a = 26 	 i_din_b = 0 	 i_addr_a = 306 	 i_addr_b = 0
# [REF][A] READ  addr=306 bank=2 data=0x0 err=0 time=290
# i_en_a = 0 	 i_en_b = 1 	 i_we_a = 0 	 i_we_b = 0 	 i_din_a = 0 	 i_din_b = 245 	 i_addr_a = 0 	 i_addr_b = 759
# i_en_a = 1 	 i_en_b = 0 	 i_we_a = 1 	 i_we_b = 0 	 i_din_a = 72 	 i_din_b = 0 	 i_addr_a = 287 	 i_addr_b = 0
# [REF][B] READ  addr=0 bank=3 data=0x0 err=0 time=300
# [REF][A] WRITE addr=287 bank=3 enc=0xc48 time=300
# [SCO] PORT_A PASS: addr=0 din=0 dout=0 err_ref=0 err_mon=0
# [SCO] PORT_B PASS: addr=759 din=0 dout=0 err_ref=0 err_mon=0
# i_en_a = 1 	 i_en_b = 0 	 i_we_a = 1 	 i_we_b = 0 	 i_din_a = 32 	 i_din_b = 0 	 i_addr_a = 280 	 i_addr_b = 0
# [REF][A] WRITE addr=280 bank=0 enc=0xa20 time=310
# i_en_a = 0 	 i_en_b = 1 	 i_we_a = 0 	 i_we_b = 1 	 i_din_a = 0 	 i_din_b = 146 	 i_addr_a = 0 	 i_addr_b = 578
# i_en_a = 1 	 i_en_b = 0 	 i_we_a = 1 	 i_we_b = 0 	 i_din_a = 85 	 i_din_b = 0 	 i_addr_a = 114 	 i_addr_b = 0
# [REF][B] WRITE addr=578 bank=2 enc=0x92 time=320
# [REF][A] WRITE addr=114 bank=2 enc=0x755 time=320
# i_en_a = 1 	 i_en_b = 0 	 i_we_a = 1 	 i_we_b = 0 	 i_din_a = 68 	 i_din_b = 0 	 i_addr_a = 323 	 i_addr_b = 0
# [REF][A] WRITE addr=323 bank=3 enc=0xd44 time=330
# i_en_a = 0 	 i_en_b = 1 	 i_we_a = 0 	 i_we_b = 1 	 i_din_a = 0 	 i_din_b = 210 	 i_addr_a = 0 	 i_addr_b = 889
# i_en_a = 1 	 i_en_b = 0 	 i_we_a = 0 	 i_we_b = 0 	 i_din_a = 71 	 i_din_b = 0 	 i_addr_a = 90 	 i_addr_b = 0
# [REF][B] WRITE addr=889 bank=1 enc=0xbd2 time=340
# [REF][A] READ  addr=90 bank=2 data=0x0 err=0 time=340
